{
  "type": "service_account",
  "project_id": "spreadsheet-result-writer",
  "private_key_id": "a366a1de912be620d430dddbbada97a89a87e98b",
  "private_key": "-----BEGIN PRIVATE KEY-----\nMIIEvgIBADANBgkqhkiG9w0BAQEFAASCBKgwggSkAgEAAoIBAQCqk3dTnkgefSNg\nkGFYvR9w++WY+cvQ4sz65990tsGv6K85FS8mOpRSCPv3tznCK9xSl8ynIJrQY6IT\n+I7zJnuNOs+LKKw1VnUs+NgAQu2aXZdM7EEMx8JJKN7hXNr4fSlZyWnmpAuXL0Bi\np4/ybjUdjMdWNIo2C20M8VUvMqN+QTgDPqBLlnZJDxwj2EyjuCf0SYAWJMb/7Rd6\ngxjEwVd9gFT0kZVuEEFasDKClXpORDuoHnvM0+3WMjXG29khRrkOjrjMyxYieRYu\ntCaj1Jd6+L9BCzrx8wk7jD/tNdGKtLEualMvILdax/HpoNESE+iu+3W08C9gy16c\nSKRq7EvrAgMBAAECggEAMoND+XOseLbnFI/8++nZlzxJNCF5DW00dXLX9fiu59hY\nl2diFIiRZq+5ahSM2qbhcmX4mV9q6R4wH4jiUDgLq3mIf3W2dX8aaQxx7rXjJezk\nQsfNxaqcKs0bH5K/V4m9BpVCMqZOtmEsSGrFkm23df48A5fAfBurGgOXjcgJqXfL\neCcaeUgbZbirOLWoRLKm7ZT/PGSaJ6AGOOYV/z/N4fCVMmNAqd//isRAk73PMiz9\nxVWPd30/2bprnOKun50rESUxFBjNl9ykRU4uyfecJQcgptSowAXoDm/ype32sLvc\ndo23v46WlyRUb2kKBW+lTVnTtrWkVMWo9DsigCDRvQKBgQDmA9NDWEWcQaylSrw3\nKFnUWKG7eSe5wju4XogbpNNgpyThTvLLIPYLlMybRwynuGGEI6WE/0L61hB4WFyK\nWkrLDlx3TZ3lq8r6IAqJP2jhovC+eM9jcdfbOK+SbZ65KFJEzmIrqpVd06XOXO/c\nUNV8SNT6J9I55V6dyL8zbvTalwKBgQC92KGF0tbNOQ26Omm+sfJEHnTBTcX+J4Kc\nuySS9f+qHCZsSyHYtd400CyH/Z5TC0fzP2NXJdRWH3aBiO1/K5so5mlZzAcNYWuK\nZGjprdyaJDRUCvtI+m90XcJ1vhs+1uQtrIQkyJxj5+2m2O8r2LHhEJzvWJLPElxD\nA524F53nzQKBgQDNHf4o4S/6X0qhgFsF6RLqXTulHi7B5acyDALefAcP+x3VWn0D\njdo8i65Gjn6HltJHby5swuGtJHY9i7bCnjBykdT9gxbauG9izG345LYX+SEtCjkP\nGnd/BDb1opHX1lA/EbjT7eQTbuk+dPxlgSRQF/btOdOsU5IjrOBs8nah8wKBgGPJ\nyp0dBes5Yg3RRmQGBOHpYFV7G+dLvUvE0qSsyYYQ5eFmXJQchIAeLEoO9XmRJHCn\nkP/t0n6yawgLgUqnEReehSG+LLbLzksgHEU4LgyXmynR2+OwP4VbAywAkTGmoqmf\nVJZBHHMnJbPds1nIvTcgFF16oTBW5kgTToPFZirBAoGBAIgKxDqPFGZfLbYNer2Y\nisztX8xlnpUNgRohRpJyrqgzWNt94lOVTFwNMDfli1MUVoy/xaa5Sy8vNu/ybqzB\nJyd4uVbc3oAqAk5wHtrtsyHtc+bP3OAbb1CYH1VzqaTdQVy0OoBAz0nofEM+RLxI\nHHNj2GV90LnMpEzyJuUt7hRS\n-----END PRIVATE KEY-----\n",
  "client_email": "spreadsheet-result-writer@spreadsheet-result-writer.iam.gserviceaccount.com",
  "client_id": "102356657812146602106",
  "auth_uri": "https://accounts.google.com/o/oauth2/auth",
  "token_uri": "https://oauth2.googleapis.com/token",
  "auth_provider_x509_cert_url": "https://www.googleapis.com/oauth2/v1/certs",
  "client_x509_cert_url": "https://www.googleapis.com/robot/v1/metadata/x509/spreadsheet-result-writer%40spreadsheet-result-writer.iam.gserviceaccount.com"
}
